;  LST file generated by mikroListExporter - v.2.0 
; Date/Time: 10/30/2020 11:44:16 PM
;----------------------------------------------

;Address Opcode 	ASM
0x0000	0x29C1      	GOTO       449
_Delay_50us:
;__Lib_Delays.c,19 :: 		void Delay_50us() {
;__Lib_Delays.c,20 :: 		Delay_us(50);
0x0003	0x3010      	MOVLW      16
0x0004	0x1283      	BCF        STATUS, 5
0x0005	0x1303      	BCF        STATUS, 6
0x0006	0x00FD      	MOVWF      R13
L_Delay_50us2:
0x0007	0x0BFD      	DECFSZ     R13, 1
0x0008	0x2807      	GOTO       L_Delay_50us2
0x0009	0x0000      	NOP
;__Lib_Delays.c,21 :: 		}
L_end_Delay_50us:
0x000A	0x0008      	RETURN
; end of _Delay_50us
_Delay_1us:
;__Lib_Delays.c,7 :: 		void Delay_1us() {
;__Lib_Delays.c,8 :: 		Delay_us(1);
0x000B	0x0000      	NOP
;__Lib_Delays.c,9 :: 		}
L_end_Delay_1us:
0x000C	0x0008      	RETURN
; end of _Delay_1us
_Delay_5500us:
;__Lib_Delays.c,31 :: 		void Delay_5500us() {
;__Lib_Delays.c,32 :: 		Delay_us(5500);
0x000D	0x3008      	MOVLW      8
0x000E	0x1283      	BCF        STATUS, 5
0x000F	0x1303      	BCF        STATUS, 6
0x0010	0x00FC      	MOVWF      R12
0x0011	0x3023      	MOVLW      35
0x0012	0x00FD      	MOVWF      R13
L_Delay_5500us5:
0x0013	0x0BFD      	DECFSZ     R13, 1
0x0014	0x2813      	GOTO       L_Delay_5500us5
0x0015	0x0BFC      	DECFSZ     R12, 1
0x0016	0x2813      	GOTO       L_Delay_5500us5
;__Lib_Delays.c,33 :: 		}
L_end_Delay_5500us:
0x0017	0x0008      	RETURN
; end of _Delay_5500us
_Lcd_Cmd:
;__Lib_Lcd.c,18 :: 		
;__Lib_Lcd.c,20 :: 		
0x0018	0x1683      	BSF        STATUS, 5
0x0019	0x1303      	BCF        STATUS, 6
0x001A	0x1BA9      	BTFSC      FARG_Lcd_Cmd_out_char, 7
0x001B	0x281F      	GOTO       L__Lcd_Cmd21
0x001C	0x1283      	BCF        STATUS, 5
0x001D	0x1186      	BCF        LCD_D7, BitPos(LCD_D7+0)
0x001E	0x2821      	GOTO       L__Lcd_Cmd22
L__Lcd_Cmd21:
0x001F	0x1283      	BCF        STATUS, 5
0x0020	0x1586      	BSF        LCD_D7, BitPos(LCD_D7+0)
L__Lcd_Cmd22:
;__Lib_Lcd.c,21 :: 		
0x0021	0x1683      	BSF        STATUS, 5
0x0022	0x1B29      	BTFSC      FARG_Lcd_Cmd_out_char, 6
0x0023	0x2827      	GOTO       L__Lcd_Cmd23
0x0024	0x1283      	BCF        STATUS, 5
0x0025	0x1106      	BCF        LCD_D6, BitPos(LCD_D6+0)
0x0026	0x2829      	GOTO       L__Lcd_Cmd24
L__Lcd_Cmd23:
0x0027	0x1283      	BCF        STATUS, 5
0x0028	0x1506      	BSF        LCD_D6, BitPos(LCD_D6+0)
L__Lcd_Cmd24:
;__Lib_Lcd.c,22 :: 		
0x0029	0x1683      	BSF        STATUS, 5
0x002A	0x1AA9      	BTFSC      FARG_Lcd_Cmd_out_char, 5
0x002B	0x282F      	GOTO       L__Lcd_Cmd25
0x002C	0x1283      	BCF        STATUS, 5
0x002D	0x1086      	BCF        LCD_D5, BitPos(LCD_D5+0)
0x002E	0x2831      	GOTO       L__Lcd_Cmd26
L__Lcd_Cmd25:
0x002F	0x1283      	BCF        STATUS, 5
0x0030	0x1486      	BSF        LCD_D5, BitPos(LCD_D5+0)
L__Lcd_Cmd26:
;__Lib_Lcd.c,23 :: 		
0x0031	0x1683      	BSF        STATUS, 5
0x0032	0x1A29      	BTFSC      FARG_Lcd_Cmd_out_char, 4
0x0033	0x2837      	GOTO       L__Lcd_Cmd27
0x0034	0x1283      	BCF        STATUS, 5
0x0035	0x1006      	BCF        LCD_D4, BitPos(LCD_D4+0)
0x0036	0x2839      	GOTO       L__Lcd_Cmd28
L__Lcd_Cmd27:
0x0037	0x1283      	BCF        STATUS, 5
0x0038	0x1406      	BSF        LCD_D4, BitPos(LCD_D4+0)
L__Lcd_Cmd28:
;__Lib_Lcd.c,25 :: 		
0x0039	0x186F      	BTFSC      __Lib_Lcd_cmd_status, BitPos(__Lib_Lcd_cmd_status+0)
0x003A	0x283D      	GOTO       L__Lcd_Cmd29
0x003B	0x1606      	BSF        LCD_RS, BitPos(LCD_RS+0)
0x003C	0x283E      	GOTO       L__Lcd_Cmd30
L__Lcd_Cmd29:
0x003D	0x1206      	BCF        LCD_RS, BitPos(LCD_RS+0)
L__Lcd_Cmd30:
;__Lib_Lcd.c,28 :: 		
0x003E	0x1686      	BSF        LCD_EN, BitPos(LCD_EN+0)
;__Lib_Lcd.c,29 :: 		
0x003F	0x200B      	CALL       _Delay_1us
;__Lib_Lcd.c,30 :: 		
0x0040	0x1286      	BCF        LCD_EN, BitPos(LCD_EN+0)
;__Lib_Lcd.c,33 :: 		
0x0041	0x1683      	BSF        STATUS, 5
0x0042	0x19A9      	BTFSC      FARG_Lcd_Cmd_out_char, 3
0x0043	0x2847      	GOTO       L__Lcd_Cmd31
0x0044	0x1283      	BCF        STATUS, 5
0x0045	0x1186      	BCF        LCD_D7, BitPos(LCD_D7+0)
0x0046	0x2849      	GOTO       L__Lcd_Cmd32
L__Lcd_Cmd31:
0x0047	0x1283      	BCF        STATUS, 5
0x0048	0x1586      	BSF        LCD_D7, BitPos(LCD_D7+0)
L__Lcd_Cmd32:
;__Lib_Lcd.c,34 :: 		
0x0049	0x1683      	BSF        STATUS, 5
0x004A	0x1929      	BTFSC      FARG_Lcd_Cmd_out_char, 2
0x004B	0x284F      	GOTO       L__Lcd_Cmd33
0x004C	0x1283      	BCF        STATUS, 5
0x004D	0x1106      	BCF        LCD_D6, BitPos(LCD_D6+0)
0x004E	0x2851      	GOTO       L__Lcd_Cmd34
L__Lcd_Cmd33:
0x004F	0x1283      	BCF        STATUS, 5
0x0050	0x1506      	BSF        LCD_D6, BitPos(LCD_D6+0)
L__Lcd_Cmd34:
;__Lib_Lcd.c,35 :: 		
0x0051	0x1683      	BSF        STATUS, 5
0x0052	0x18A9      	BTFSC      FARG_Lcd_Cmd_out_char, 1
0x0053	0x2857      	GOTO       L__Lcd_Cmd35
0x0054	0x1283      	BCF        STATUS, 5
0x0055	0x1086      	BCF        LCD_D5, BitPos(LCD_D5+0)
0x0056	0x2859      	GOTO       L__Lcd_Cmd36
L__Lcd_Cmd35:
0x0057	0x1283      	BCF        STATUS, 5
0x0058	0x1486      	BSF        LCD_D5, BitPos(LCD_D5+0)
L__Lcd_Cmd36:
;__Lib_Lcd.c,36 :: 		
0x0059	0x1683      	BSF        STATUS, 5
0x005A	0x1829      	BTFSC      FARG_Lcd_Cmd_out_char, 0
0x005B	0x285F      	GOTO       L__Lcd_Cmd37
0x005C	0x1283      	BCF        STATUS, 5
0x005D	0x1006      	BCF        LCD_D4, BitPos(LCD_D4+0)
0x005E	0x2861      	GOTO       L__Lcd_Cmd38
L__Lcd_Cmd37:
0x005F	0x1283      	BCF        STATUS, 5
0x0060	0x1406      	BSF        LCD_D4, BitPos(LCD_D4+0)
L__Lcd_Cmd38:
;__Lib_Lcd.c,38 :: 		
0x0061	0x186F      	BTFSC      __Lib_Lcd_cmd_status, BitPos(__Lib_Lcd_cmd_status+0)
0x0062	0x2865      	GOTO       L__Lcd_Cmd39
0x0063	0x1606      	BSF        LCD_RS, BitPos(LCD_RS+0)
0x0064	0x2866      	GOTO       L__Lcd_Cmd40
L__Lcd_Cmd39:
0x0065	0x1206      	BCF        LCD_RS, BitPos(LCD_RS+0)
L__Lcd_Cmd40:
;__Lib_Lcd.c,40 :: 		
0x0066	0x1686      	BSF        LCD_EN, BitPos(LCD_EN+0)
;__Lib_Lcd.c,41 :: 		
0x0067	0x200B      	CALL       _Delay_1us
;__Lib_Lcd.c,42 :: 		
0x0068	0x1286      	BCF        LCD_EN, BitPos(LCD_EN+0)
;__Lib_Lcd.c,44 :: 		
0x0069	0x1C6F      	BTFSS      __Lib_Lcd_cmd_status, BitPos(__Lib_Lcd_cmd_status+0)
0x006A	0x286D      	GOTO       L_Lcd_Cmd0
;__Lib_Lcd.c,45 :: 		
0x006B	0x200D      	CALL       _Delay_5500us
0x006C	0x286E      	GOTO       L_Lcd_Cmd1
L_Lcd_Cmd0:
;__Lib_Lcd.c,47 :: 		
0x006D	0x2003      	CALL       _Delay_50us
L_Lcd_Cmd1:
;__Lib_Lcd.c,48 :: 		
L_end_Lcd_Cmd:
0x006E	0x0008      	RETURN
; end of _Lcd_Cmd
_Lcd_Chr_CP:
;__Lib_Lcd.c,50 :: 		
;__Lib_Lcd.c,52 :: 		
0x006F	0x1283      	BCF        STATUS, 5
0x0070	0x1303      	BCF        STATUS, 6
0x0071	0x106F      	BCF        __Lib_Lcd_cmd_status, BitPos(__Lib_Lcd_cmd_status+0)
;__Lib_Lcd.c,53 :: 		
0x0072	0x1683      	BSF        STATUS, 5
0x0073	0x0828      	MOVF       FARG_Lcd_Chr_CP_out_char, 0
0x0074	0x00A9      	MOVWF      FARG_Lcd_Cmd_out_char
0x0075	0x2018      	CALL       _Lcd_Cmd
;__Lib_Lcd.c,54 :: 		
0x0076	0x146F      	BSF        __Lib_Lcd_cmd_status, BitPos(__Lib_Lcd_cmd_status+0)
;__Lib_Lcd.c,55 :: 		
L_end_Lcd_Chr_CP:
0x0077	0x0008      	RETURN
; end of _Lcd_Chr_CP
_Lcd_Out:
;__Lib_Lcd.c,184 :: 		
;__Lib_Lcd.c,187 :: 		
0x0078	0x288A      	GOTO       L_Lcd_Out11
;__Lib_Lcd.c,188 :: 		
L_Lcd_Out13:
0x0079	0x3080      	MOVLW      128
0x007A	0x1683      	BSF        STATUS, 5
0x007B	0x1303      	BCF        STATUS, 6
0x007C	0x00A4      	MOVWF      FARG_Lcd_Out_row
0x007D	0x289D      	GOTO       L_Lcd_Out12
;__Lib_Lcd.c,189 :: 		
L_Lcd_Out14:
0x007E	0x30C0      	MOVLW      192
0x007F	0x00A4      	MOVWF      FARG_Lcd_Out_row
0x0080	0x289D      	GOTO       L_Lcd_Out12
;__Lib_Lcd.c,190 :: 		
L_Lcd_Out15:
0x0081	0x3094      	MOVLW      148
0x0082	0x00A4      	MOVWF      FARG_Lcd_Out_row
0x0083	0x289D      	GOTO       L_Lcd_Out12
;__Lib_Lcd.c,191 :: 		
L_Lcd_Out16:
0x0084	0x30D4      	MOVLW      212
0x0085	0x00A4      	MOVWF      FARG_Lcd_Out_row
0x0086	0x289D      	GOTO       L_Lcd_Out12
;__Lib_Lcd.c,192 :: 		
L_Lcd_Out17:
0x0087	0x3080      	MOVLW      128
0x0088	0x00A4      	MOVWF      FARG_Lcd_Out_row
;__Lib_Lcd.c,193 :: 		
0x0089	0x289D      	GOTO       L_Lcd_Out12
L_Lcd_Out11:
0x008A	0x1683      	BSF        STATUS, 5
0x008B	0x1303      	BCF        STATUS, 6
0x008C	0x0824      	MOVF       FARG_Lcd_Out_row, 0
0x008D	0x3A01      	XORLW      1
0x008E	0x1903      	BTFSC      STATUS, 2
0x008F	0x2879      	GOTO       L_Lcd_Out13
0x0090	0x0824      	MOVF       FARG_Lcd_Out_row, 0
0x0091	0x3A02      	XORLW      2
0x0092	0x1903      	BTFSC      STATUS, 2
0x0093	0x287E      	GOTO       L_Lcd_Out14
0x0094	0x0824      	MOVF       FARG_Lcd_Out_row, 0
0x0095	0x3A03      	XORLW      3
0x0096	0x1903      	BTFSC      STATUS, 2
0x0097	0x2881      	GOTO       L_Lcd_Out15
0x0098	0x0824      	MOVF       FARG_Lcd_Out_row, 0
0x0099	0x3A04      	XORLW      4
0x009A	0x1903      	BTFSC      STATUS, 2
0x009B	0x2884      	GOTO       L_Lcd_Out16
0x009C	0x2887      	GOTO       L_Lcd_Out17
L_Lcd_Out12:
;__Lib_Lcd.c,194 :: 		
0x009D	0x0325      	DECF       FARG_Lcd_Out_column, 0
0x009E	0x00F0      	MOVWF      R0
0x009F	0x0824      	MOVF       FARG_Lcd_Out_row, 0
0x00A0	0x07F0      	ADDWF      R0, 1
0x00A1	0x0870      	MOVF       R0, 0
0x00A2	0x00A4      	MOVWF      FARG_Lcd_Out_row
;__Lib_Lcd.c,196 :: 		
0x00A3	0x0870      	MOVF       R0, 0
0x00A4	0x00A9      	MOVWF      FARG_Lcd_Cmd_out_char
0x00A5	0x2018      	CALL       _Lcd_Cmd
;__Lib_Lcd.c,197 :: 		
0x00A6	0x106F      	BCF        __Lib_Lcd_cmd_status, BitPos(__Lib_Lcd_cmd_status+0)
;__Lib_Lcd.c,198 :: 		
0x00A7	0x1683      	BSF        STATUS, 5
0x00A8	0x01A7      	CLRF       Lcd_Out_i_L0
;__Lib_Lcd.c,199 :: 		
L_Lcd_Out18:
0x00A9	0x0827      	MOVF       Lcd_Out_i_L0, 0
0x00AA	0x0726      	ADDWF      FARG_Lcd_Out_text, 0
0x00AB	0x0084      	MOVWF      FSR
0x00AC	0x0800      	MOVF       INDF, 0
0x00AD	0x1903      	BTFSC      STATUS, 2
0x00AE	0x28B8      	GOTO       L_Lcd_Out19
;__Lib_Lcd.c,200 :: 		
0x00AF	0x0827      	MOVF       Lcd_Out_i_L0, 0
0x00B0	0x0726      	ADDWF      FARG_Lcd_Out_text, 0
0x00B1	0x0084      	MOVWF      FSR
0x00B2	0x0800      	MOVF       INDF, 0
0x00B3	0x00A8      	MOVWF      FARG_Lcd_Chr_CP_out_char
0x00B4	0x206F      	CALL       _Lcd_Chr_CP
0x00B5	0x1683      	BSF        STATUS, 5
0x00B6	0x0AA7      	INCF       Lcd_Out_i_L0, 1
0x00B7	0x28A9      	GOTO       L_Lcd_Out18
L_Lcd_Out19:
;__Lib_Lcd.c,201 :: 		
0x00B8	0x1283      	BCF        STATUS, 5
0x00B9	0x146F      	BSF        __Lib_Lcd_cmd_status, BitPos(__Lib_Lcd_cmd_status+0)
;__Lib_Lcd.c,202 :: 		
L_end_Lcd_Out:
0x00BA	0x0008      	RETURN
; end of _Lcd_Out
_____DoICP:
;__Lib_System.c,6 :: 		
;__Lib_System.c,9 :: 		
0x00BB	0x1683      	BSF        STATUS, 5
0x00BC	0x1303      	BCF        STATUS, 6
0x00BD	0x0821      	MOVF       ___DoICPAddr+1, 0
0x00BE	0x008A      	MOVWF      PCLATH
;__Lib_System.c,10 :: 		
0x00BF	0x0820      	MOVF       ___DoICPAddr, 0
0x00C0	0x0082      	MOVWF      PCL
;__Lib_System.c,12 :: 		
L_end_____DoICP:
0x00C1	0x0008      	RETURN
; end of _____DoICP
_Lcd_write_two_lines:
;lcddisplay.c,40 :: 		
;lcddisplay.c,41 :: 		
0x00C2	0x3001      	MOVLW      1
0x00C3	0x1683      	BSF        STATUS, 5
0x00C4	0x1303      	BCF        STATUS, 6
0x00C5	0x00A4      	MOVWF      FARG_Lcd_Out_row
0x00C6	0x3001      	MOVLW      1
0x00C7	0x00A5      	MOVWF      FARG_Lcd_Out_column
0x00C8	0x0822      	MOVF       FARG_Lcd_write_two_lines_text_row_1, 0
0x00C9	0x00A6      	MOVWF      FARG_Lcd_Out_text
0x00CA	0x2078      	CALL       _Lcd_Out
;lcddisplay.c,42 :: 		
0x00CB	0x3002      	MOVLW      2
0x00CC	0x1683      	BSF        STATUS, 5
0x00CD	0x00A4      	MOVWF      FARG_Lcd_Out_row
0x00CE	0x3001      	MOVLW      1
0x00CF	0x00A5      	MOVWF      FARG_Lcd_Out_column
0x00D0	0x0823      	MOVF       FARG_Lcd_write_two_lines_text_row_2, 0
0x00D1	0x00A6      	MOVWF      FARG_Lcd_Out_text
0x00D2	0x2078      	CALL       _Lcd_Out
;lcddisplay.c,43 :: 		
L_end_Lcd_write_two_lines:
0x00D3	0x0008      	RETURN
; end of _Lcd_write_two_lines
_Lcd_Init:
;__Lib_Lcd.c,84 :: 		
;__Lib_Lcd.c,86 :: 		
0x00D4	0x1683      	BSF        STATUS, 5
0x00D5	0x1303      	BCF        STATUS, 6
0x00D6	0x1286      	BCF        LCD_EN_Direction, BitPos(LCD_EN_Direction+0)
;__Lib_Lcd.c,87 :: 		
0x00D7	0x1206      	BCF        LCD_RS_Direction, BitPos(LCD_RS_Direction+0)
;__Lib_Lcd.c,88 :: 		
0x00D8	0x1006      	BCF        LCD_D4_Direction, BitPos(LCD_D4_Direction+0)
;__Lib_Lcd.c,89 :: 		
0x00D9	0x1086      	BCF        LCD_D5_Direction, BitPos(LCD_D5_Direction+0)
;__Lib_Lcd.c,90 :: 		
0x00DA	0x1106      	BCF        LCD_D6_Direction, BitPos(LCD_D6_Direction+0)
;__Lib_Lcd.c,91 :: 		
0x00DB	0x1186      	BCF        LCD_D7_Direction, BitPos(LCD_D7_Direction+0)
;__Lib_Lcd.c,93 :: 		
0x00DC	0x1283      	BCF        STATUS, 5
0x00DD	0x1286      	BCF        LCD_EN, BitPos(LCD_EN+0)
;__Lib_Lcd.c,94 :: 		
0x00DE	0x1206      	BCF        LCD_RS, BitPos(LCD_RS+0)
;__Lib_Lcd.c,95 :: 		
0x00DF	0x1186      	BCF        LCD_D7, BitPos(LCD_D7+0)
;__Lib_Lcd.c,96 :: 		
0x00E0	0x1106      	BCF        LCD_D6, BitPos(LCD_D6+0)
;__Lib_Lcd.c,97 :: 		
0x00E1	0x1086      	BCF        LCD_D5, BitPos(LCD_D5+0)
;__Lib_Lcd.c,98 :: 		
0x00E2	0x1006      	BCF        LCD_D4, BitPos(LCD_D4+0)
;__Lib_Lcd.c,100 :: 		
0x00E3	0x200D      	CALL       _Delay_5500us
;__Lib_Lcd.c,101 :: 		
0x00E4	0x200D      	CALL       _Delay_5500us
;__Lib_Lcd.c,102 :: 		
0x00E5	0x200D      	CALL       _Delay_5500us
;__Lib_Lcd.c,105 :: 		
0x00E6	0x1486      	BSF        LCD_D5, BitPos(LCD_D5+0)
;__Lib_Lcd.c,106 :: 		
0x00E7	0x1406      	BSF        LCD_D4, BitPos(LCD_D4+0)
;__Lib_Lcd.c,107 :: 		
0x00E8	0x1686      	BSF        LCD_EN, BitPos(LCD_EN+0)
;__Lib_Lcd.c,108 :: 		
0x00E9	0x200B      	CALL       _Delay_1us
;__Lib_Lcd.c,109 :: 		
0x00EA	0x1286      	BCF        LCD_EN, BitPos(LCD_EN+0)
;__Lib_Lcd.c,110 :: 		
0x00EB	0x200D      	CALL       _Delay_5500us
;__Lib_Lcd.c,112 :: 		
0x00EC	0x1686      	BSF        LCD_EN, BitPos(LCD_EN+0)
;__Lib_Lcd.c,113 :: 		
0x00ED	0x200B      	CALL       _Delay_1us
;__Lib_Lcd.c,114 :: 		
0x00EE	0x1286      	BCF        LCD_EN, BitPos(LCD_EN+0)
;__Lib_Lcd.c,115 :: 		
0x00EF	0x200D      	CALL       _Delay_5500us
;__Lib_Lcd.c,117 :: 		
0x00F0	0x1686      	BSF        LCD_EN, BitPos(LCD_EN+0)
;__Lib_Lcd.c,118 :: 		
0x00F1	0x200B      	CALL       _Delay_1us
;__Lib_Lcd.c,119 :: 		
0x00F2	0x1286      	BCF        LCD_EN, BitPos(LCD_EN+0)
;__Lib_Lcd.c,120 :: 		
0x00F3	0x200D      	CALL       _Delay_5500us
;__Lib_Lcd.c,123 :: 		
0x00F4	0x1006      	BCF        LCD_D4, BitPos(LCD_D4+0)
;__Lib_Lcd.c,124 :: 		
0x00F5	0x1686      	BSF        LCD_EN, BitPos(LCD_EN+0)
;__Lib_Lcd.c,125 :: 		
0x00F6	0x200B      	CALL       _Delay_1us
;__Lib_Lcd.c,126 :: 		
0x00F7	0x1286      	BCF        LCD_EN, BitPos(LCD_EN+0)
;__Lib_Lcd.c,127 :: 		
0x00F8	0x200D      	CALL       _Delay_5500us
;__Lib_Lcd.c,130 :: 		
0x00F9	0x1686      	BSF        LCD_EN, BitPos(LCD_EN+0)
;__Lib_Lcd.c,131 :: 		
0x00FA	0x200B      	CALL       _Delay_1us
;__Lib_Lcd.c,132 :: 		
0x00FB	0x1286      	BCF        LCD_EN, BitPos(LCD_EN+0)
;__Lib_Lcd.c,134 :: 		
0x00FC	0x1086      	BCF        LCD_D5, BitPos(LCD_D5+0)
;__Lib_Lcd.c,135 :: 		
0x00FD	0x1586      	BSF        LCD_D7, BitPos(LCD_D7+0)
;__Lib_Lcd.c,136 :: 		
0x00FE	0x1686      	BSF        LCD_EN, BitPos(LCD_EN+0)
;__Lib_Lcd.c,137 :: 		
0x00FF	0x200B      	CALL       _Delay_1us
;__Lib_Lcd.c,138 :: 		
0x0100	0x1286      	BCF        LCD_EN, BitPos(LCD_EN+0)
;__Lib_Lcd.c,139 :: 		
0x0101	0x200D      	CALL       _Delay_5500us
;__Lib_Lcd.c,142 :: 		
0x0102	0x1186      	BCF        LCD_D7, BitPos(LCD_D7+0)
;__Lib_Lcd.c,143 :: 		
0x0103	0x1406      	BSF        LCD_D4, BitPos(LCD_D4+0)
;__Lib_Lcd.c,144 :: 		
0x0104	0x1686      	BSF        LCD_EN, BitPos(LCD_EN+0)
;__Lib_Lcd.c,145 :: 		
0x0105	0x200B      	CALL       _Delay_1us
;__Lib_Lcd.c,146 :: 		
0x0106	0x1286      	BCF        LCD_EN, BitPos(LCD_EN+0)
;__Lib_Lcd.c,148 :: 		
0x0107	0x1006      	BCF        LCD_D4, BitPos(LCD_D4+0)
;__Lib_Lcd.c,149 :: 		
0x0108	0x1686      	BSF        LCD_EN, BitPos(LCD_EN+0)
;__Lib_Lcd.c,150 :: 		
0x0109	0x200B      	CALL       _Delay_1us
;__Lib_Lcd.c,151 :: 		
0x010A	0x1286      	BCF        LCD_EN, BitPos(LCD_EN+0)
;__Lib_Lcd.c,152 :: 		
0x010B	0x200D      	CALL       _Delay_5500us
;__Lib_Lcd.c,155 :: 		
0x010C	0x1686      	BSF        LCD_EN, BitPos(LCD_EN+0)
;__Lib_Lcd.c,156 :: 		
0x010D	0x200B      	CALL       _Delay_1us
;__Lib_Lcd.c,157 :: 		
0x010E	0x1286      	BCF        LCD_EN, BitPos(LCD_EN+0)
;__Lib_Lcd.c,159 :: 		
0x010F	0x1406      	BSF        LCD_D4, BitPos(LCD_D4+0)
;__Lib_Lcd.c,160 :: 		
0x0110	0x1686      	BSF        LCD_EN, BitPos(LCD_EN+0)
;__Lib_Lcd.c,161 :: 		
0x0111	0x200B      	CALL       _Delay_1us
;__Lib_Lcd.c,162 :: 		
0x0112	0x1286      	BCF        LCD_EN, BitPos(LCD_EN+0)
;__Lib_Lcd.c,163 :: 		
0x0113	0x200D      	CALL       _Delay_5500us
;__Lib_Lcd.c,166 :: 		
0x0114	0x1006      	BCF        LCD_D4, BitPos(LCD_D4+0)
;__Lib_Lcd.c,167 :: 		
0x0115	0x1686      	BSF        LCD_EN, BitPos(LCD_EN+0)
;__Lib_Lcd.c,168 :: 		
0x0116	0x200B      	CALL       _Delay_1us
;__Lib_Lcd.c,169 :: 		
0x0117	0x1286      	BCF        LCD_EN, BitPos(LCD_EN+0)
;__Lib_Lcd.c,171 :: 		
0x0118	0x1586      	BSF        LCD_D7, BitPos(LCD_D7+0)
;__Lib_Lcd.c,172 :: 		
0x0119	0x1506      	BSF        LCD_D6, BitPos(LCD_D6+0)
;__Lib_Lcd.c,173 :: 		
0x011A	0x1486      	BSF        LCD_D5, BitPos(LCD_D5+0)
;__Lib_Lcd.c,174 :: 		
0x011B	0x1406      	BSF        LCD_D4, BitPos(LCD_D4+0)
;__Lib_Lcd.c,175 :: 		
0x011C	0x1686      	BSF        LCD_EN, BitPos(LCD_EN+0)
;__Lib_Lcd.c,176 :: 		
0x011D	0x200B      	CALL       _Delay_1us
;__Lib_Lcd.c,177 :: 		
0x011E	0x1286      	BCF        LCD_EN, BitPos(LCD_EN+0)
;__Lib_Lcd.c,179 :: 		
0x011F	0x200D      	CALL       _Delay_5500us
;__Lib_Lcd.c,181 :: 		
0x0120	0x146F      	BSF        __Lib_Lcd_cmd_status, BitPos(__Lib_Lcd_cmd_status+0)
;__Lib_Lcd.c,182 :: 		
L_end_Lcd_Init:
0x0121	0x0008      	RETURN
; end of _Lcd_Init
_Helper_config_components:
;helper.c,1 :: 		
;helper.c,3 :: 		
0x0122	0x1683      	BSF        STATUS, 5
0x0123	0x1303      	BCF        STATUS, 6
0x0124	0x0185      	CLRF       TRISA
;helper.c,4 :: 		
0x0125	0x30FF      	MOVLW      255
0x0126	0x0088      	MOVWF      TRISD
;helper.c,6 :: 		
0x0127	0x1283      	BCF        STATUS, 5
0x0128	0x0185      	CLRF       PORTA
;helper.c,7 :: 		
0x0129	0x1683      	BSF        STATUS, 5
0x012A	0x1703      	BSF        STATUS, 6
0x012B	0x0188      	CLRF       ANSEL
;helper.c,8 :: 		
0x012C	0x0189      	CLRF       ANSELH
;helper.c,10 :: 		
0x012D	0x20D4      	CALL       _Lcd_Init
;helper.c,11 :: 		
0x012E	0x3001      	MOVLW      1
0x012F	0x1683      	BSF        STATUS, 5
0x0130	0x00A9      	MOVWF      FARG_Lcd_Cmd_out_char
0x0131	0x2018      	CALL       _Lcd_Cmd
;helper.c,12 :: 		
0x0132	0x300C      	MOVLW      12
0x0133	0x1683      	BSF        STATUS, 5
0x0134	0x00A9      	MOVWF      FARG_Lcd_Cmd_out_char
0x0135	0x2018      	CALL       _Lcd_Cmd
;helper.c,13 :: 		
L_end_Helper_config_components:
0x0136	0x0008      	RETURN
; end of _Helper_config_components
_Lcd_show_copyrigth:
;lcddisplay.c,45 :: 		
;lcddisplay.c,46 :: 		
0x0137	0x3001      	MOVLW      1
0x0138	0x1683      	BSF        STATUS, 5
0x0139	0x1303      	BCF        STATUS, 6
0x013A	0x00A9      	MOVWF      FARG_Lcd_Cmd_out_char
0x013B	0x2018      	CALL       _Lcd_Cmd
;lcddisplay.c,47 :: 		
0x013C	0x300C      	MOVLW      12
0x013D	0x1683      	BSF        STATUS, 5
0x013E	0x00A9      	MOVWF      FARG_Lcd_Cmd_out_char
0x013F	0x2018      	CALL       _Lcd_Cmd
;lcddisplay.c,48 :: 		
0x0140	0x3001      	MOVLW      1
0x0141	0x1683      	BSF        STATUS, 5
0x0142	0x00A4      	MOVWF      FARG_Lcd_Out_row
0x0143	0x3006      	MOVLW      6
0x0144	0x00A5      	MOVWF      FARG_Lcd_Out_column
0x0145	0x3065      	MOVLW      _copyrigth
0x0146	0x00A6      	MOVWF      FARG_Lcd_Out_text
0x0147	0x2078      	CALL       _Lcd_Out
;lcddisplay.c,49 :: 		
0x0148	0x3002      	MOVLW      2
0x0149	0x1683      	BSF        STATUS, 5
0x014A	0x00A4      	MOVWF      FARG_Lcd_Out_row
0x014B	0x3006      	MOVLW      6
0x014C	0x00A5      	MOVWF      FARG_Lcd_Out_column
0x014D	0x3058      	MOVLW      _reserved_to
0x014E	0x00A6      	MOVWF      FARG_Lcd_Out_text
0x014F	0x2078      	CALL       _Lcd_Out
;lcddisplay.c,50 :: 		
0x0150	0x300B      	MOVLW      11
0x0151	0x00FB      	MOVWF      R11
0x0152	0x3026      	MOVLW      38
0x0153	0x00FC      	MOVWF      R12
0x0154	0x305D      	MOVLW      93
0x0155	0x00FD      	MOVWF      R13
L_Lcd_show_copyrigth2:
0x0156	0x0BFD      	DECFSZ     R13, 1
0x0157	0x2956      	GOTO       L_Lcd_show_copyrigth2
0x0158	0x0BFC      	DECFSZ     R12, 1
0x0159	0x2956      	GOTO       L_Lcd_show_copyrigth2
0x015A	0x0BFB      	DECFSZ     R11, 1
0x015B	0x2956      	GOTO       L_Lcd_show_copyrigth2
0x015C	0x0000      	NOP
0x015D	0x0000      	NOP
;lcddisplay.c,52 :: 		
0x015E	0x3001      	MOVLW      1
0x015F	0x1683      	BSF        STATUS, 5
0x0160	0x00A9      	MOVWF      FARG_Lcd_Cmd_out_char
0x0161	0x2018      	CALL       _Lcd_Cmd
;lcddisplay.c,54 :: 		
0x0162	0x3001      	MOVLW      1
0x0163	0x1683      	BSF        STATUS, 5
0x0164	0x00A4      	MOVWF      FARG_Lcd_Out_row
0x0165	0x3001      	MOVLW      1
0x0166	0x00A5      	MOVWF      FARG_Lcd_Out_column
0x0167	0x302C      	MOVLW      _memb1_name
0x0168	0x00A6      	MOVWF      FARG_Lcd_Out_text
0x0169	0x2078      	CALL       _Lcd_Out
;lcddisplay.c,55 :: 		
0x016A	0x3002      	MOVLW      2
0x016B	0x1683      	BSF        STATUS, 5
0x016C	0x00A4      	MOVWF      FARG_Lcd_Out_row
0x016D	0x3005      	MOVLW      5
0x016E	0x00A5      	MOVWF      FARG_Lcd_Out_column
0x016F	0x3020      	MOVLW      _memb1_CI
0x0170	0x00A6      	MOVWF      FARG_Lcd_Out_text
0x0171	0x2078      	CALL       _Lcd_Out
;lcddisplay.c,56 :: 		
0x0172	0x300B      	MOVLW      11
0x0173	0x00FB      	MOVWF      R11
0x0174	0x3026      	MOVLW      38
0x0175	0x00FC      	MOVWF      R12
0x0176	0x305D      	MOVLW      93
0x0177	0x00FD      	MOVWF      R13
L_Lcd_show_copyrigth3:
0x0178	0x0BFD      	DECFSZ     R13, 1
0x0179	0x2978      	GOTO       L_Lcd_show_copyrigth3
0x017A	0x0BFC      	DECFSZ     R12, 1
0x017B	0x2978      	GOTO       L_Lcd_show_copyrigth3
0x017C	0x0BFB      	DECFSZ     R11, 1
0x017D	0x2978      	GOTO       L_Lcd_show_copyrigth3
0x017E	0x0000      	NOP
0x017F	0x0000      	NOP
;lcddisplay.c,58 :: 		
0x0180	0x3001      	MOVLW      1
0x0181	0x1683      	BSF        STATUS, 5
0x0182	0x00A9      	MOVWF      FARG_Lcd_Cmd_out_char
0x0183	0x2018      	CALL       _Lcd_Cmd
;lcddisplay.c,60 :: 		
0x0184	0x3001      	MOVLW      1
0x0185	0x1683      	BSF        STATUS, 5
0x0186	0x00A4      	MOVWF      FARG_Lcd_Out_row
0x0187	0x3001      	MOVLW      1
0x0188	0x00A5      	MOVWF      FARG_Lcd_Out_column
0x0189	0x303D      	MOVLW      _memb2_name
0x018A	0x00A6      	MOVWF      FARG_Lcd_Out_text
0x018B	0x2078      	CALL       _Lcd_Out
;lcddisplay.c,61 :: 		
0x018C	0x3002      	MOVLW      2
0x018D	0x1683      	BSF        STATUS, 5
0x018E	0x00A4      	MOVWF      FARG_Lcd_Out_row
0x018F	0x3005      	MOVLW      5
0x0190	0x00A5      	MOVWF      FARG_Lcd_Out_column
0x0191	0x304C      	MOVLW      _memb2_CI
0x0192	0x00A6      	MOVWF      FARG_Lcd_Out_text
0x0193	0x2078      	CALL       _Lcd_Out
;lcddisplay.c,62 :: 		
0x0194	0x300B      	MOVLW      11
0x0195	0x00FB      	MOVWF      R11
0x0196	0x3026      	MOVLW      38
0x0197	0x00FC      	MOVWF      R12
0x0198	0x305D      	MOVLW      93
0x0199	0x00FD      	MOVWF      R13
L_Lcd_show_copyrigth4:
0x019A	0x0BFD      	DECFSZ     R13, 1
0x019B	0x299A      	GOTO       L_Lcd_show_copyrigth4
0x019C	0x0BFC      	DECFSZ     R12, 1
0x019D	0x299A      	GOTO       L_Lcd_show_copyrigth4
0x019E	0x0BFB      	DECFSZ     R11, 1
0x019F	0x299A      	GOTO       L_Lcd_show_copyrigth4
0x01A0	0x0000      	NOP
0x01A1	0x0000      	NOP
;lcddisplay.c,64 :: 		
0x01A2	0x3001      	MOVLW      1
0x01A3	0x1683      	BSF        STATUS, 5
0x01A4	0x00A9      	MOVWF      FARG_Lcd_Cmd_out_char
0x01A5	0x2018      	CALL       _Lcd_Cmd
;lcddisplay.c,66 :: 		
0x01A6	0x302C      	MOVLW      _memb1_name
0x01A7	0x1683      	BSF        STATUS, 5
0x01A8	0x00A2      	MOVWF      FARG_Lcd_write_two_lines_text_row_1
0x01A9	0x303D      	MOVLW      _memb2_name
0x01AA	0x00A3      	MOVWF      FARG_Lcd_write_two_lines_text_row_2
0x01AB	0x20C2      	CALL       _Lcd_write_two_lines
;lcddisplay.c,67 :: 		
L_end_Lcd_show_copyrigth:
0x01AC	0x0008      	RETURN
; end of _Lcd_show_copyrigth
___CC2DW:
;__Lib_System.c,134 :: 		
;__Lib_System.c,137 :: 		
_CC2D_Loop1:
;__Lib_System.c,139 :: 		
0x01AD	0x20BB      	CALL       _____DoICP
0x01AE	0x118A      	BCF        PCLATH, 3
0x01AF	0x120A      	BCF        PCLATH, 4
;__Lib_System.c,141 :: 		
0x01B0	0x0080      	MOVWF      INDF
;__Lib_System.c,142 :: 		
0x01B1	0x0A84      	INCF       FSR, 1
;__Lib_System.c,143 :: 		
0x01B2	0x0AA0      	INCF       ___DoICPAddr, 1
;__Lib_System.c,145 :: 		
0x01B3	0x1903      	BTFSC      STATUS, 2
;__Lib_System.c,146 :: 		
0x01B4	0x0AA1      	INCF       ___DoICPAddr+1, 1
;__Lib_System.c,147 :: 		
0x01B5	0x03F0      	DECF       R0, 1
;__Lib_System.c,149 :: 		
0x01B6	0x1D03      	BTFSS      STATUS, 2
;__Lib_System.c,150 :: 		
0x01B7	0x29AD      	GOTO       _CC2D_Loop1
;__Lib_System.c,152 :: 		
L_end___CC2DW:
0x01B8	0x0008      	RETURN
; end of ___CC2DW
_set_bits_for_LCD:
;lcddisplay.c,28 :: 		
;lcddisplay.c,29 :: 		
0x01B9	0x1683      	BSF        STATUS, 5
0x01BA	0x1703      	BSF        STATUS, 6
0x01BB	0x0188      	CLRF       ANSEL
;lcddisplay.c,30 :: 		
0x01BC	0x0189      	CLRF       ANSELH
;lcddisplay.c,31 :: 		
0x01BD	0x1283      	BCF        STATUS, 5
0x01BE	0x1387      	BCF        C1ON_bit, BitPos(C1ON_bit+0)
;lcddisplay.c,32 :: 		
0x01BF	0x1388      	BCF        C2ON_bit, BitPos(C2ON_bit+0)
;lcddisplay.c,33 :: 		
L_end_set_bits_for_LCD:
0x01C0	0x0008      	RETURN
; end of _set_bits_for_LCD
_main:
0x01C1	0x221C      	CALL       540
;TemperatureMonitoringSystem.c,12 :: 		void main(){
;TemperatureMonitoringSystem.c,13 :: 		set_bits_for_LCD();
0x01C2	0x21B9      	CALL       _set_bits_for_LCD
;TemperatureMonitoringSystem.c,15 :: 		Lcd_Init();                        // Initialize LCD
0x01C3	0x20D4      	CALL       _Lcd_Init
;TemperatureMonitoringSystem.c,17 :: 		Lcd_show_copyrigth();
0x01C4	0x2137      	CALL       _Lcd_show_copyrigth
;TemperatureMonitoringSystem.c,19 :: 		Helper_config_components();
0x01C5	0x2122      	CALL       _Helper_config_components
;TemperatureMonitoringSystem.c,21 :: 		while(1) {                         // Endless loop
L_main23:
;TemperatureMonitoringSystem.c,23 :: 		}
0x01C6	0x29C6      	GOTO       L_main23
;TemperatureMonitoringSystem.c,24 :: 		}
L_end_main:
0x01C7	0x29C7      	GOTO       $+0
; end of _main
0x021C	0x3020      	MOVLW      32
0x021D	0x0084      	MOVWF      FSR
0x021E	0x304F      	MOVLW      79
0x021F	0x1283      	BCF        STATUS, 5
0x0220	0x1303      	BCF        STATUS, 6
0x0221	0x00F0      	MOVWF      R0
0x0222	0x30CD      	MOVLW      205
0x0223	0x1683      	BSF        STATUS, 5
0x0224	0x00A0      	MOVWF      ___DoICPAddr
0x0225	0x3001      	MOVLW      1
0x0226	0x00A1      	MOVWF      161
0x0227	0x21AD      	CALL       429
0x0228	0x0008      	RETURN
;TemperatureMonitoringSystem.c,0 :: ?ICS_memb1_CI
0x01CD	0x3456 ;?ICS_memb1_CI+0
0x01CE	0x3432 ;?ICS_memb1_CI+1
0x01CF	0x3434 ;?ICS_memb1_CI+2
0x01D0	0x342E ;?ICS_memb1_CI+3
0x01D1	0x3435 ;?ICS_memb1_CI+4
0x01D2	0x3435 ;?ICS_memb1_CI+5
0x01D3	0x3434 ;?ICS_memb1_CI+6
0x01D4	0x342E ;?ICS_memb1_CI+7
0x01D5	0x3434 ;?ICS_memb1_CI+8
0x01D6	0x3438 ;?ICS_memb1_CI+9
0x01D7	0x3438 ;?ICS_memb1_CI+10
0x01D8	0x3400 ;?ICS_memb1_CI+11
; end of ?ICS_memb1_CI
;TemperatureMonitoringSystem.c,0 :: ?ICS_memb1_name
0x01D9	0x3441 ;?ICS_memb1_name+0
0x01DA	0x3479 ;?ICS_memb1_name+1
0x01DB	0x3468 ;?ICS_memb1_name+2
0x01DC	0x3461 ;?ICS_memb1_name+3
0x01DD	0x346D ;?ICS_memb1_name+4
0x01DE	0x3420 ;?ICS_memb1_name+5
0x01DF	0x3441 ;?ICS_memb1_name+6
0x01E0	0x346C ;?ICS_memb1_name+7
0x01E1	0x3420 ;?ICS_memb1_name+8
0x01E2	0x3443 ;?ICS_memb1_name+9
0x01E3	0x3468 ;?ICS_memb1_name+10
0x01E4	0x346F ;?ICS_memb1_name+11
0x01E5	0x3475 ;?ICS_memb1_name+12
0x01E6	0x3468 ;?ICS_memb1_name+13
0x01E7	0x3475 ;?ICS_memb1_name+14
0x01E8	0x3466 ;?ICS_memb1_name+15
0x01E9	0x3400 ;?ICS_memb1_name+16
; end of ?ICS_memb1_name
;TemperatureMonitoringSystem.c,0 :: ?ICS_memb2_name
0x01EA	0x344D ;?ICS_memb2_name+0
0x01EB	0x3461 ;?ICS_memb2_name+1
0x01EC	0x346E ;?ICS_memb2_name+2
0x01ED	0x3475 ;?ICS_memb2_name+3
0x01EE	0x3465 ;?ICS_memb2_name+4
0x01EF	0x346C ;?ICS_memb2_name+5
0x01F0	0x3420 ;?ICS_memb2_name+6
0x01F1	0x3448 ;?ICS_memb2_name+7
0x01F2	0x3475 ;?ICS_memb2_name+8
0x01F3	0x3472 ;?ICS_memb2_name+9
0x01F4	0x3474 ;?ICS_memb2_name+10
0x01F5	0x3461 ;?ICS_memb2_name+11
0x01F6	0x3464 ;?ICS_memb2_name+12
0x01F7	0x346F ;?ICS_memb2_name+13
0x01F8	0x3400 ;?ICS_memb2_name+14
; end of ?ICS_memb2_name
;TemperatureMonitoringSystem.c,0 :: ?ICS_memb2_CI
0x01F9	0x3456 ;?ICS_memb2_CI+0
0x01FA	0x3432 ;?ICS_memb2_CI+1
0x01FB	0x3430 ;?ICS_memb2_CI+2
0x01FC	0x342E ;?ICS_memb2_CI+3
0x01FD	0x3436 ;?ICS_memb2_CI+4
0x01FE	0x3439 ;?ICS_memb2_CI+5
0x01FF	0x3439 ;?ICS_memb2_CI+6
0x0200	0x342E ;?ICS_memb2_CI+7
0x0201	0x3433 ;?ICS_memb2_CI+8
0x0202	0x3430 ;?ICS_memb2_CI+9
0x0203	0x3430 ;?ICS_memb2_CI+10
0x0204	0x3400 ;?ICS_memb2_CI+11
; end of ?ICS_memb2_CI
;TemperatureMonitoringSystem.c,0 :: ?ICS_reserved_to
0x0205	0x3452 ;?ICS_reserved_to+0
0x0206	0x3465 ;?ICS_reserved_to+1
0x0207	0x3473 ;?ICS_reserved_to+2
0x0208	0x3465 ;?ICS_reserved_to+3
0x0209	0x3472 ;?ICS_reserved_to+4
0x020A	0x3476 ;?ICS_reserved_to+5
0x020B	0x3465 ;?ICS_reserved_to+6
0x020C	0x3464 ;?ICS_reserved_to+7
0x020D	0x3420 ;?ICS_reserved_to+8
0x020E	0x3474 ;?ICS_reserved_to+9
0x020F	0x346F ;?ICS_reserved_to+10
0x0210	0x343A ;?ICS_reserved_to+11
0x0211	0x3400 ;?ICS_reserved_to+12
; end of ?ICS_reserved_to
;TemperatureMonitoringSystem.c,0 :: ?ICS_copyrigth
0x0212	0x3441 ;?ICS_copyrigth+0
0x0213	0x346C ;?ICS_copyrigth+1
0x0214	0x346C ;?ICS_copyrigth+2
0x0215	0x3420 ;?ICS_copyrigth+3
0x0216	0x3452 ;?ICS_copyrigth+4
0x0217	0x3469 ;?ICS_copyrigth+5
0x0218	0x3467 ;?ICS_copyrigth+6
0x0219	0x3474 ;?ICS_copyrigth+7
0x021A	0x3468 ;?ICS_copyrigth+8
0x021B	0x3400 ;?ICS_copyrigth+9
; end of ?ICS_copyrigth
Symbol List:
//** Routines locations **
//ADDRESS    SIZE    PROCEDURE
//----------------------------------------------
0x0003       [8]    _Delay_50us
0x000B       [2]    _Delay_1us
0x000D      [11]    _Delay_5500us
0x0018      [87]    _Lcd_Cmd
0x006F       [9]    _Lcd_Chr_CP
0x0078      [67]    _Lcd_Out
0x00BB       [7]    _____DoICP
0x00C2      [18]    _Lcd_write_two_lines
0x00D4      [78]    _Lcd_Init
0x0122      [21]    _Helper_config_components
0x0137     [118]    _Lcd_show_copyrigth
0x01AD      [12]    ___CC2DW
0x01B9       [8]    _set_bits_for_LCD
0x01C1       [6]    _main
//** Variables locations ** 
//ADDRESS    SIZE    VARIABLE
//----------------------------------------------
0x0000       [1]    INDF
0x0002       [1]    PCL
0x0003       [1]    STATUS
0x0004       [1]    FSR
0x0005       [1]    PORTA
0x0006       [0]    LCD_EN
0x0006       [0]    LCD_RS
0x0006       [0]    LCD_D7
0x0006       [0]    LCD_D5
0x0006       [0]    LCD_D6
0x0006       [0]    LCD_D4
0x0006       [0]    RB5_bit
0x0006       [0]    RB4_bit
0x0006       [0]    RB3_bit
0x0006       [0]    RB0_bit
0x0006       [0]    RB1_bit
0x0006       [0]    RB2_bit
0x0007       [0]    RC3_bit
0x0007       [0]    RC4_bit
0x000A       [1]    PCLATH
0x0020      [12]    _memb1_CI
0x002C      [17]    _memb1_name
0x003D      [15]    _memb2_name
0x004C      [12]    _memb2_CI
0x0058      [13]    _reserved_to
0x0065      [10]    _copyrigth
0x006F       [0]    __Lib_Lcd_cmd_status
0x0070       [1]    R0
0x0071       [1]    R1
0x0072       [1]    R2
0x0073       [1]    R3
0x0074       [1]    R4
0x0075       [1]    R5
0x0076       [1]    R6
0x0077       [1]    R7
0x0078       [1]    R8
0x0079       [1]    R9
0x007A       [1]    R10
0x007B       [1]    R11
0x007C       [1]    R12
0x007D       [1]    R13
0x007E       [1]    R14
0x007F       [1]    R15
0x0085       [1]    TRISA
0x0086       [0]    LCD_D7_Direction
0x0086       [0]    LCD_RS_Direction
0x0086       [0]    LCD_D6_Direction
0x0086       [0]    LCD_D4_Direction
0x0086       [0]    LCD_D5_Direction
0x0086       [0]    LCD_EN_Direction
0x0086       [0]    TRISB0_bit
0x0086       [0]    TRISB1_bit
0x0086       [0]    TRISB2_bit
0x0086       [0]    TRISB3_bit
0x0086       [0]    TRISB5_bit
0x0086       [0]    TRISB4_bit
0x0087       [0]    TRISC3_bit
0x0087       [0]    TRISC4_bit
0x0088       [1]    TRISD
0x00A0       [2]    ___DoICPAddr
0x00A2       [1]    FARG_Lcd_write_two_lines_text_row_1
0x00A3       [1]    FARG_Lcd_write_two_lines_text_row_2
0x00A4       [1]    FARG_Lcd_Out_row
0x00A5       [1]    FARG_Lcd_Out_column
0x00A6       [1]    FARG_Lcd_Out_text
0x00A7       [1]    Lcd_Out_i_L0
0x00A8       [1]    FARG_Lcd_Chr_CP_out_char
0x00A9       [1]    FARG_Lcd_Cmd_out_char
0x0107       [0]    C1ON_bit
0x0108       [0]    C2ON_bit
0x0188       [1]    ANSEL
0x0189       [1]    ANSELH
//** Constants locations ** 
//ADDRESS    SIZE    CONSTANT
//----------------------------------------------
0x01CD      [12]    ?ICS_memb1_CI
0x01D9      [17]    ?ICS_memb1_name
0x01EA      [15]    ?ICS_memb2_name
0x01F9      [12]    ?ICS_memb2_CI
0x0205      [13]    ?ICS_reserved_to
0x0212      [10]    ?ICS_copyrigth
